{
	"errcode": 0,
	"errmsg": "操作成功",
	"beginIndex": 1,
	"endIndex": 10,
	"pageSize": 10,
	"pageNo": 1,
	"totalCount": 200,
	"totalPage": 425,
	"maxPage": 10,
	"beginPage": 1,
	"endPage": 10,
	"rows": [{
		"id":"1",
		"num":1,
		"email":"diankun2008@126.com",
		"mobile":"15663499001",
		"idcard":"230101200001010101",
		"select":1,
		"selectName":"第一个",
		"datetime":"2018-01-22 15:45:00",
		"date":"2018-01-22",
		"time":"15:45:00",
		"radio":1,
		"radioName":"是",
		"checkbox":"1,2,3,4",
		"checkboxName":"水费,电费,网费,煤气费",
		"textarea":"文本框"
	},{
		"id":"2",
		"num":1,
		"email":"diankun2008@126.com",
		"mobile":"15663499001",
		"idcard":"230101200001010101",
		"select":1,
		"selectName":"第一个",
		"datetime":"2018-01-22 15:45:00",
		"date":"2018-01-22",
		"time":"15:45:00",
		"radio":0,
		"radioName":"是",
		"checkbox":"1",
		"checkboxName":"水费",
		"textarea":"文本框"
	},{
		"id":"3",
		"num":1,
		"email":"diankun2008@126.com",
		"mobile":"15663499001",
		"idcard":"230101200001010101",
		"select":1,
		"selectName":"第一个",
		"datetime":"2018-01-22 15:45:00",
		"date":"2018-01-22",
		"time":"15:45:00",
		"radio":0,
		"radioName":"是",
		"checkbox":"2",
		"checkboxName":"电费",
		"textarea":"文本框"
	},{
		"id":"4",
		"num":1,
		"email":"diankun2008@126.com",
		"mobile":"15663499001",
		"idcard":"230101200001010101",
		"select":1,
		"selectName":"第一个",
		"datetime":"2018-01-22 15:45:00",
		"date":"2018-01-22",
		"time":"15:45:00",
		"radio":1,
		"radioName":"是",
		"checkbox":"3",
		"checkboxName":"网费",
		"textarea":"文本框"
	},{
		"id":"5",
		"num":1,
		"email":"diankun2008@126.com",
		"mobile":"15663499001",
		"idcard":"230101200001010101",
		"select":1,
		"selectName":"第一个",
		"datetime":"2018-01-22 15:45:00",
		"date":"2018-01-22",
		"time":"15:45:00",
		"radio":1,
		"radioName":"是",
		"checkbox":"4",
		"checkboxName":"煤气费",
		"textarea":"文本框"
	},{
		"id":"1",
		"num":1,
		"email":"diankun2008@126.com",
		"mobile":"15663499001",
		"idcard":"230101200001010101",
		"select":1,
		"selectName":"第一个",
		"datetime":"2018-01-22 15:45:00",
		"date":"2018-01-22",
		"time":"15:45:00",
		"radio":1,
		"radioName":"是",
		"checkbox":"1,2,3,4",
		"checkboxName":"水费,电费,网费,煤气费",
		"textarea":"文本框"
	},{
		"id":"2",
		"num":1,
		"email":"diankun2008@126.com",
		"mobile":"15663499001",
		"idcard":"230101200001010101",
		"select":1,
		"selectName":"第一个",
		"datetime":"2018-01-22 15:45:00",
		"date":"2018-01-22",
		"time":"15:45:00",
		"radio":0,
		"radioName":"是",
		"checkbox":"1",
		"checkboxName":"水费",
		"textarea":"文本框"
	},{
		"id":"3",
		"num":1,
		"email":"diankun2008@126.com",
		"mobile":"15663499001",
		"idcard":"230101200001010101",
		"select":1,
		"selectName":"第一个",
		"datetime":"2018-01-22 15:45:00",
		"date":"2018-01-22",
		"time":"15:45:00",
		"radio":0,
		"radioName":"是",
		"checkbox":"2",
		"checkboxName":"电费",
		"textarea":"文本框"
	},{
		"id":"4",
		"num":1,
		"email":"diankun2008@126.com",
		"mobile":"15663499001",
		"idcard":"230101200001010101",
		"select":1,
		"selectName":"第一个",
		"datetime":"2018-01-22 15:45:00",
		"date":"2018-01-22",
		"time":"15:45:00",
		"radio":1,
		"radioName":"是",
		"checkbox":"3",
		"checkboxName":"网费",
		"textarea":"文本框"
	},{
		"id":"5",
		"num":1,
		"email":"diankun2008@126.com",
		"mobile":"15663499001",
		"idcard":"230101200001010101",
		"select":1,
		"selectName":"第一个",
		"datetime":"2018-01-22 15:45:00",
		"date":"2018-01-22",
		"time":"15:45:00",
		"radio":1,
		"radioName":"是",
		"checkbox":"4",
		"checkboxName":"煤气费",
		"textarea":"文本框"
	}]
}